Light,Fans,Steamer
0,0,0
0,0,0
0,0,0
0,0,0
0,0,0
0,0,0
0,0,0
0,0,0
0,0,0
0,0,0
0,0,0
0,0,0
0,0,0
0,0,0
0,0,0
0,0,0
0,0,0
0,0,0
0,0,0
0,0,0
0,0,0
0,0,0
0,0,0
0,0,0
0,0,0
67,0,0
68,0,0
68,0,0
68,0,0
68,0,0
68,0,0
68,0,0
68,0,0
68,0,0
68,0,0
68,0,0
68,0,0
68,0,0
67,0,0
68,0,0
68,0,0
67,0,0
68,0,0
68,28,0
68,747,0
67,730,0
67,715,0
67,705,0
68,704,0
68,706,0
67,706,0
67,708,0
66,707,0
67,708,0
67,490,370
67,494,379
68,496,379
68,497,5945
67,499,6365
67,731,6397
67,722,6409
67,714,6406
68,710,6406
67,709,6405
67,710,6401
67,710,6409
67,709,6405
67,709,6408
67,709,6411
67,709,6411
67,707,6407
67,706,6399
67,706,6412
66,709,6407
67,709,6417
67,709,6416
66,708,6409
67,706,6401
67,708,6405
67,708,6405
67,708,6407
67,707,6403
67,707,6407
67,708,6398
67,707,6401
67,708,6409
67,708,6406
66,707,6398
66,706,6398
67,706,6405
66,707,6402
67,706,6402
67,706,6403
67,706,6397
67,706,6402
66,705,6397
67,707,6399
66,706,6380
67,706,6401
66,706,6391
67,707,6402
67,705,6402
67,705,6390
66,705,6403
67,706,6401
66,706,6398
67,705,6395
67,706,6400
67,705,6402
67,706,6397
67,700,6396
66,705,6392
66,704,6402
67,705,6394
67,704,6391
67,704,6394
67,704,6392
68,704,6390
67,705,6393
66,704,6380
67,704,6384
67,704,6392
67,704,6392
67,704,6393
66,703,6387
67,703,6394
67,702,6394
67,703,6387
66,703,6388
67,702,6387
66,703,6384
67,704,6378
66,703,6389
67,703,6390
67,701,6383
68,703,6394
67,702,6388
67,701,6384
67,702,6391
68,701,6390
68,702,6389
67,702,6386
67,702,6386
68,701,6386
67,701,6396
67,702,6387
67,702,6382
67,701,6388
68,701,6379
68,701,6385
0,700,6386
0,702,6386
0,701,6383
0,701,6382
0,701,6388
0,700,6388
0,699,6386
0,700,6387
0,701,6386
0,700,6384
0,701,6380
0,701,6376
0,701,6381
0,701,6381
0,0,6384
0,0,6384
0,0,6380
0,422,6379
0,623,6383
0,615,6378
0,609,6383
0,609,6378
0,610,6385
0,611,6379
0,612,6378
0,613,6379
0,614,6378
0,615,6383
0,615,6379
0,616,6381
0,616,6381
0,617,6379
0,617,6378
0,618,6378
0,617,6374
0,617,6361
0,617,6365
0,617,6371
0,617,6373
0,618,6294
0,617,6271
0,617,6262
0,618,6266
0,617,6251
0,618,6217
0,618,6231
0,618,6249
0,617,6239
0,619,6229
0,618,6245
0,616,6240
0,616,6228
0,618,6242
0,618,6244
0,619,6237
0,618,6114
0,617,436
0,618,403
0,617,402
0,617,370
0,618,377
0,618,379
0,618,379
0,617,378
0,617,379
0,614,379
0,619,379
0,618,379
0,617,379
0,618,378
0,617,379
0,617,379
0,616,379
0,617,378
0,616,379
0,616,379
0,616,378
0,617,379
0,616,379
0,617,379
0,613,379
0,615,378
0,615,378
0,614,379
0,615,379
0,616,379
0,613,379
0,617,379
0,616,379
0,613,379
0,611,379
0,612,378
0,611,379
0,611,379
14,615,378
68,613,379
68,615,380
68,615,380
67,613,380
68,615,379
67,614,379
68,614,379
67,616,380
67,617,380
67,617,379
67,616,379
67,616,379
68,616,380
67,615,379
67,617,378
67,615,379
68,616,379
67,616,379
67,616,379
67,615,379
67,615,379
68,616,380
67,616,379
67,616,380
67,615,379
66,616,379
66,615,379
67,616,379
67,616,379
66,616,378
67,615,379
67,616,379
67,615,378
67,616,379
67,615,379
67,615,380
67,615,380
67,616,378
67,616,379
67,615,379
66,615,379
67,616,377
67,615,377
67,615,379
67,615,379
66,616,380
67,615,380
67,616,379
66,615,379
66,615,379
67,615,379
67,612,379
67,616,378
67,615,379
67,615,376
67,612,377
67,614,380
67,613,378
68,611,380
67,613,379
67,614,379
67,615,379
67,615,379
68,615,379
68,614,378
68,614,378
68,615,379
68,615,377
68,615,379
68,599,379
67,275,379
68,491,379
67,490,380
68,492,379
67,51,379
68,723,379
68,713,378
67,705,379
68,703,379
68,703,379
68,702,379
67,703,379
67,702,379
68,703,379
68,703,378
68,703,379
67,704,379
68,703,379
68,703,379
67,703,379
68,702,379
68,702,379
67,702,379
68,702,379
68,702,379
67,700,379
68,702,379
67,702,379
68,701,379
68,700,378
69,702,378
68,702,379
68,702,378
68,701,379
68,701,379
68,701,379
68,701,378
67,700,379
67,700,379
67,699,379
68,700,379
68,701,379
68,701,379
68,699,378
68,700,379
67,700,380
68,699,379
68,699,377
68,699,379
68,699,378
68,699,379
68,699,379
67,699,379
68,699,379
68,700,379
67,699,379
68,699,379
68,699,378
68,699,379
68,699,379
67,699,378
68,699,380
68,698,379
68,698,379
68,698,379
68,699,379
68,698,379
68,697,379
68,697,379
68,697,379
68,698,378
68,698,378
68,698,376
68,697,380
68,697,378
67,696,377
68,697,379
68,698,378
68,698,379
68,697,379
68,697,379
67,697,377
67,697,379
68,696,379
68,697,377
68,697,379
68,697,377
69,697,378
67,698,380
68,696,379
68,697,378
68,697,378
68,697,379
68,697,379
68,697,378
68,696,378
68,696,378
68,697,379
68,696,378
68,695,377
68,696,379
68,696,379
68,696,378
68,696,378
68,696,379
68,696,378
67,697,379
68,696,379
67,696,379
68,696,379
68,697,379
68,696,380
68,697,378
68,697,379
67,696,379
68,697,378
68,697,379
68,696,379
68,696,379
69,695,379
69,695,379
68,696,378
68,696,379
68,696,380
68,696,378
67,697,379
67,697,379
68,696,379
68,696,379
68,696,379
68,696,378
69,695,379
69,696,378
68,696,379
68,696,379
68,696,377
68,696,380
68,696,378
68,696,378
68,696,379
68,696,379
67,697,378
68,696,379
68,697,379
68,695,379
68,696,379
68,695,378
68,695,378
68,695,379
68,696,378
68,695,379
68,695,378
67,695,379
67,696,378
69,695,378
68,695,379
68,695,379
68,695,378
68,696,379
69,695,379
68,695,379
68,695,379
67,695,379
67,695,378
68,693,378
68,694,379
68,696,379
68,696,379
68,696,379
68,695,378
68,695,378
68,695,378
68,695,379
68,695,378
68,695,379
68,695,379
68,695,379
68,695,379
68,694,378
68,695,377
69,695,379
67,693,379
68,695,379
68,695,379
68,695,378
68,695,379
68,695,378
68,695,378
69,694,378
68,695,378
68,694,378
68,693,379
68,693,379
68,693,378
68,693,379
69,693,379
68,693,379
69,693,379
68,693,379
68,692,378
69,694,378
68,694,379
68,695,379
68,696,378
68,694,379
68,694,379
68,694,379
69,694,379
67,694,378
68,694,378
68,693,378
68,694,379
69,694,378
68,694,378
68,692,378
68,693,379
68,695,379
68,694,379
68,693,379
68,694,378
68,694,379
68,693,379
68,693,379
69,694,379
68,694,379
68,695,379
68,695,378
68,694,378
68,695,378
68,695,379
68,695,379
67,693,378
69,694,377
68,694,379
68,694,379
68,694,379
68,692,379
68,691,379
68,693,378
69,692,379
68,692,379
68,693,378
68,694,377
68,695,379
69,695,379
68,694,378
68,694,379
68,693,378
67,694,379
68,694,378
68,693,379
67,693,378
68,690,379
68,692,379
68,692,379
68,694,379
68,692,378
68,694,378
68,693,379
68,694,379
68,691,379
68,692,378
69,693,379
68,694,379
68,693,379
68,694,379
68,690,377
68,693,378
68,692,378
68,692,379
69,692,378
68,693,378
68,693,378
69,693,379
68,693,378
68,693,379
68,692,379
68,694,378
69,690,379
69,694,379
68,693,377
68,691,378
68,693,379
69,691,379
68,693,378
68,693,379
68,693,378
68,692,377
69,693,379
68,693,379
68,692,378
68,693,378
68,692,379
68,691,379
68,693,378
68,693,377
68,694,378
68,693,379
68,692,378
68,693,379
69,692,379
68,692,378
68,693,379
68,693,379
68,692,379
68,692,379
68,693,379
68,693,378
68,693,379
68,692,379
68,692,378
67,693,378
68,692,377
68,693,378
68,692,379
68,692,379
68,689,379
68,694,378
68,691,379
69,690,379
68,692,378
68,692,378
68,692,379
68,692,378
68,693,378
69,693,378
68,692,378
68,692,379
68,692,378
68,692,379
69,692,379
68,692,378
68,692,379
68,692,378
68,692,379
68,691,378
68,692,379
68,692,378
68,692,378
68,692,378
68,690,379
68,692,377
68,690,377
68,692,379
68,692,379
68,692,379
68,692,379
68,692,379
68,692,379
67,693,379
68,692,379
68,692,379
68,691,379
68,690,378
68,692,378
68,692,379
68,691,378
69,692,379
68,692,378
69,691,379
68,691,379
68,691,379
68,692,379
68,692,378
68,692,378
68,691,378
68,692,379
68,690,379
68,691,379
68,691,378
68,691,379
68,691,379
69,691,378
68,691,379
68,691,378
68,689,379
68,692,379
67,692,379
68,692,379
68,691,378
67,690,379
68,692,379
68,691,378
68,692,378
68,692,378
68,691,379
68,691,379
68,691,379
68,692,378
67,691,378
68,691,378
68,691,378
68,689,379
69,691,378
68,690,378
68,690,379
68,691,377
68,692,378
68,692,378
68,690,377
68,691,376
67,691,379
69,689,379
68,691,378
68,692,380
68,692,378
68,691,378
67,692,378
68,692,377
68,692,377
68,692,379
68,691,378
68,691,378
67,691,379
68,691,377
68,691,379
68,692,378
68,691,378
69,691,377
68,692,377
68,691,378
68,691,378
68,692,379
68,691,379
69,692,378
68,691,379
67,691,379
68,691,378
68,692,379
68,691,379
67,689,378
68,691,378
68,691,378
68,692,378
68,691,378
68,692,378
67,692,378
67,692,378
68,691,379
68,691,379
68,691,378
69,691,378
67,691,379
68,692,379
67,692,379
68,691,377
68,690,379
68,691,378
68,692,378
68,691,379
68,691,379
68,692,378
68,691,378
68,691,379
68,691,379
67,691,378
69,690,378
68,691,378
68,692,378
68,691,378
68,692,378
67,691,378
68,691,379
68,691,379
68,689,379
68,690,378
68,692,379
68,691,379
68,690,379
68,690,379
67,689,378
68,690,377
67,691,380
68,690,379
67,690,379
68,690,378
67,690,378
68,690,378
68,691,378
68,691,378
68,691,378
68,690,378
68,691,378
68,690,379
67,689,379
68,690,378
68,691,379
68,691,378
68,690,379
68,691,379
68,692,379
68,691,378
68,691,379
69,690,379
68,691,378
68,690,379
67,690,378
68,690,377
67,690,378
68,691,379
68,691,378
69,691,379
68,691,379
67,691,378
68,690,380
67,690,379
67,690,379
67,691,379
67,690,379
68,692,379
68,691,379
68,691,379
68,692,379
68,690,379
68,690,379
68,690,379
68,691,379
67,691,378
68,689,379
68,691,379
68,690,379
68,691,379
69,691,379
68,690,378
68,690,378
68,691,379
67,691,379
69,690,379
67,691,379
67,690,379
68,690,379
68,690,379
68,690,379
68,690,379
68,690,379
68,690,379
68,690,378
68,690,378
68,691,379
67,690,379
68,691,378
68,691,379
68,690,379
68,690,379
68,691,378
68,690,380
67,690,378
68,689,378
67,691,378
68,690,378
67,689,378
68,690,379
67,690,379
68,690,379
68,690,379
68,690,379
68,690,379
68,690,379
67,690,379
68,690,379
68,689,379
68,691,379
68,690,379
68,690,379
68,690,379
68,690,379
67,690,378
68,690,378
68,690,378
68,691,379
68,690,379
68,690,379
68,690,378
68,690,377
68,691,379
68,690,378
68,690,377
68,691,379
67,690,378
68,691,379
67,689,379
68,689,378
68,690,378
68,690,379
68,691,379
67,690,379
67,691,379
68,690,378
68,690,379
68,692,379
68,690,379
68,691,379
68,689,378
68,689,379
68,691,379
68,690,379
68,690,379
68,689,379
68,691,379
67,690,379
68,690,379
68,690,379
68,689,380
67,689,379
68,690,379
68,690,379
68,688,379
67,688,379
68,689,379
68,690,378
68,689,378
68,689,378
68,689,379
68,689,379
67,689,379
68,690,380
68,690,379
68,689,378
67,689,379
68,690,379
68,690,378
68,690,379
68,690,379
68,689,378
67,689,379
68,689,378
69,690,378
68,690,379
68,690,379
68,689,379
68,690,379
67,689,379
68,690,379
68,690,378
69,689,379
68,690,378
67,689,379
67,689,379
68,690,379
68,690,378
68,689,378
68,690,378
68,688,378
68,691,378
68,690,379
68,690,378
67,690,378
68,689,379
68,690,377
68,689,379
68,689,379
68,689,378
68,690,378
67,690,378
68,690,379
67,689,379
68,689,378
68,689,378
68,690,379
68,690,378
67,689,378
68,690,378
67,690,379
67,690,379
67,689,378
68,690,378
68,690,379
69,689,379
67,688,379
68,690,379
68,690,379
68,690,379
68,689,379
68,690,379
68,688,379
68,690,378
68,689,379
68,689,379
67,690,378
68,689,379
68,689,379
68,689,379
68,689,378
68,689,378
68,690,379
0,0,0
