Light,Fans,Steamer,Chroma,Oven,Dryer
0,0,0,0,0,0
0,0,0,0,0,0
0,0,0,0,0,0
0,0,0,0,0,0
0,0,0,0,0,0
0,0,0,0,0,0
0,0,0,1049,0,0
0,0,0,4231,0,0
0,0,0,4264,0,0
0,0,0,4237,0,0
0,0,0,4268,0,0
0,0,0,4221,0,0
0,0,0,4264,0,0
0,0,0,4241,0,0
0,0,0,4255,0,0
0,0,0,4239,0,0
0,0,0,4277,0,0
0,0,0,4247,0,0
0,0,0,4264,0,0
0,0,0,4227,0,0
0,0,0,4227,0,0
0,0,0,4223,0,0
0,0,0,4217,0,0
0,0,0,4229,0,0
0,0,0,4209,0,0
0,0,0,4230,0,0
0,0,0,4208,0,0
0,0,0,4230,0,0
0,0,0,4211,0,0
0,0,0,4249,0,0
0,0,0,4219,0,0
0,0,0,4239,0,4856
0,0,0,4225,0,5209
0,0,0,4231,0,5210
0,0,0,4230,0,5199
0,0,0,4243,0,5190
0,0,0,4228,0,5192
0,0,0,4257,0,5188
0,0,0,4235,0,5186
0,0,0,4271,0,5178
0,0,0,4238,0,5090
0,0,0,4277,0,39
0,0,0,2413,0,0
0,28,0,0,0,0
0,747,0,0,0,0
0,730,0,0,0,0
0,715,0,0,0,0
0,705,0,0,0,0
0,704,0,0,0,0
0,706,0,0,0,0
0,706,0,0,0,0
0,708,0,0,0,0
0,707,0,0,0,0
0,708,0,0,0,0
0,490,370,0,0,0
0,494,379,1049,0,0
0,496,379,4231,0,0
0,497,5945,4264,0,0
0,499,6365,4237,0,0
0,731,6397,4268,0,0
0,722,6409,4221,0,0
0,714,6406,4264,0,0
0,710,6406,4241,0,3300
0,709,6405,4255,0,162
0,710,6401,4239,0,5065
0,710,6409,4277,0,5188
0,709,6405,4247,0,5180
0,709,6408,4264,0,5180
0,709,6411,4227,0,5166
0,709,6411,4227,0,5162
0,707,6407,4223,0,5157
0,706,6399,4217,0,5159
0,706,6412,4229,0,5159
0,709,6407,4209,0,5158
0,709,6417,4230,0,4964
0,709,6416,4208,0,569
0,708,6409,4230,0,0
0,706,6401,4211,0,0
0,708,6405,4249,0,0
0,708,6405,4219,0,0
0,708,6407,4239,0,0
0,707,6403,4225,0,0
0,707,6407,4231,0,0
0,708,6398,4230,0,0
0,707,6401,4243,0,0
0,708,6409,4228,0,0
0,708,6406,4257,0,0
0,707,6398,4235,0,0
0,706,6398,4271,0,0
0,706,6405,4238,0,0
0,707,6402,4277,0,0
0,706,6402,2413,0,0
0,706,6403,0,0,0
0,706,6397,0,0,0
0,706,6402,0,0,0
0,705,6397,0,0,0
0,707,6399,0,0,0
0,706,6380,0,0,0
0,706,6401,0,0,0
0,706,6391,0,0,0
0,707,6402,0,0,0
0,705,6402,0,0,0
0,705,6390,0,0,0
0,705,6403,0,0,0
0,706,6401,1049,0,0
0,706,6398,4231,0,0
0,705,6395,4264,0,0
0,706,6400,4237,0,0
0,705,6402,4268,0,0
0,706,6397,4221,0,0
0,700,6396,4264,0,0
0,705,6392,4241,0,0
0,704,6402,4255,0,0
0,705,6394,4239,0,0
0,704,6391,4277,0,0
0,704,6394,4247,0,0
0,704,6392,4264,0,0
0,704,6390,4227,0,0
0,705,6393,4227,0,0
0,704,6380,4223,0,0
0,704,6384,4217,0,0
0,704,6392,4229,0,0
0,704,6392,4209,0,0
0,704,6393,4230,0,0
0,703,6387,4208,0,4969
0,703,6394,4230,0,5050
0,702,6394,4211,0,5131
0,703,6387,4249,0,5125
0,703,6388,4219,0,5117
0,702,6387,4239,0,5121
0,703,6384,4225,0,5112
0,704,6378,4231,0,5117
0,703,6389,4230,0,5113
0,703,6390,4243,0,5127
0,701,6383,4228,0,5128
0,703,6394,4257,0,9462
0,702,6388,4235,0,9558
0,701,6384,4271,0,9541
0,702,6391,4238,0,9535
0,701,6390,4277,0,9517
0,702,6389,2413,0,9507
0,702,6386,0,0,9500
0,702,6386,0,0,424
0,701,6386,0,0,0
0,701,6396,0,0,0
0,702,6387,0,0,0
0,702,6382,0,0,0
0,701,6388,0,0,0
0,701,6379,0,0,0
0,701,6385,0,0,0
0,700,6386,0,0,0
0,702,6386,0,0,0
0,701,6383,0,0,0
0,701,6382,0,0,0
0,701,6388,0,0,0
0,700,6388,0,0,0
0,699,6386,0,0,0
0,700,6387,0,0,0
0,701,6386,0,0,0
0,700,6384,0,0,0
0,701,6380,0,0,0
0,701,6376,0,0,0
0,701,6381,0,0,0
0,701,6381,0,0,0
0,0,6384,0,0,0
0,0,6384,0,0,0
0,0,6380,0,0,0
0,422,6379,0,0,0
0,623,6383,0,0,0
0,615,6378,0,0,0
0,609,6383,0,0,0
0,609,6378,0,0,0
0,610,6385,0,0,0
0,611,6379,0,0,0
0,612,6378,0,0,0
0,613,6379,0,0,0
0,614,6378,0,0,0
0,615,6383,0,0,0
0,615,6379,0,0,0
0,616,6381,0,0,0
0,616,6381,0,0,0
0,617,6379,0,0,0
0,617,6378,0,0,0
0,618,6378,0,0,0
0,617,6374,0,0,0
0,617,6361,0,0,0
0,617,6365,0,0,0
0,617,6371,0,0,0
0,617,6373,0,0,0
0,618,6294,0,0,0
0,617,6271,0,0,0
0,617,6262,0,0,0
0,618,6266,0,0,0
0,617,6251,0,0,2900
0,618,6217,0,0,9392
0,618,6231,0,0,9378
0,618,6249,0,0,3113
0,617,6239,0,0,0
0,619,6229,0,0,0
0,618,6245,0,0,3665
0,616,6240,0,0,0
0,616,6228,0,0,3654
0,618,6242,0,0,22
0,618,6244,0,0,8718
0,619,6237,0,0,3747
0,618,6114,0,0,9271
0,617,436,0,0,9282
0,618,403,0,0,9266
0,617,402,0,0,9252
0,617,370,0,0,9252
0,618,377,0,0,9155
0,618,379,0,0,9249
0,618,379,0,0,91
0,617,378,0,0,0
0,617,379,0,0,4933
0,614,379,0,0,4950
0,619,379,0,0,4962
0,618,379,0,0,4981
0,617,379,0,0,4990
0,618,378,0,0,4988
0,617,379,0,0,5005
0,617,379,0,0,4983
0,616,379,0,0,4992
0,617,378,0,0,4990
0,616,379,0,0,4995
0,616,379,0,0,4995
0,616,378,0,0,4995
0,617,379,0,0,5005
0,616,379,0,0,5011
0,617,379,0,0,8406
0,613,379,0,0,9370
0,615,378,0,0,4987
0,615,378,0,0,619
0,614,379,0,0,0
0,615,379,0,0,0
0,616,379,0,0,0
0,613,379,0,0,0
0,617,379,0,0,0
0,616,379,0,0,0
0,613,379,0,0,0
0,611,379,0,0,0
0,612,378,0,0,0
0,611,379,0,0,0
0,611,379,0,0,0
0,615,378,0,0,0
0,613,379,0,0,0
0,615,380,0,0,0
0,615,380,0,0,0
0,613,380,0,0,0
0,615,379,0,0,0
0,614,379,0,0,0
0,614,379,0,0,0
0,616,380,0,0,0
0,617,380,0,0,0
0,617,379,0,0,0
0,616,379,0,0,0
0,616,379,0,0,0
0,616,380,0,0,0
0,615,379,0,0,0
0,617,378,0,0,0
0,615,379,0,0,0
0,616,379,0,0,0
0,616,379,0,0,0
0,616,379,0,0,0
0,615,379,0,0,0
0,615,379,0,0,0
0,616,380,0,0,0
0,616,379,0,7203,0
0,616,380,0,7408,0
0,615,379,0,7470,0
0,616,379,0,7477,0
0,615,379,0,7471,0
0,616,379,0,7454,0
0,616,379,0,7451,0
0,616,378,0,7432,0
0,615,379,0,7430,0
0,616,379,0,7417,0
0,615,378,0,7407,0
0,616,379,0,7406,0
0,615,379,0,7394,0
0,615,380,0,7394,0
0,615,380,0,7383,0
0,616,378,0,7395,0
0,616,379,0,7387,0
0,615,379,0,7377,0
0,615,379,0,7380,0
0,616,377,0,7390,0
0,615,377,0,7362,0
0,615,379,0,7373,0
0,615,379,0,7371,0
0,616,380,0,7363,0
0,615,380,0,7363,0
0,616,379,0,7362,0
0,615,379,0,7363,0
0,615,379,0,7364,0
0,615,379,0,7355,0
0,612,379,0,7353,0
0,616,378,0,7180,0
0,615,379,0,7122,0
0,615,376,0,7118,0
0,612,377,0,7121,0
0,614,380,0,52,0
0,613,378,0,0,0
0,611,380,0,0,0
0,613,379,0,0,0
0,614,379,0,0,0
0,615,379,0,0,0
0,615,379,0,0,0
0,615,379,0,0,0
0,614,378,0,0,0
0,614,378,0,0,0
0,615,379,0,0,0
0,615,377,0,0,0
0,615,379,0,0,0
0,599,379,0,0,0
0,275,379,0,0,0
0,491,379,0,0,0
0,490,380,0,0,0
0,492,379,0,0,0
0,51,379,0,0,0
0,723,379,0,0,0
0,713,378,0,0,0
0,705,379,0,0,0
0,703,379,0,0,0
0,703,379,0,0,0
0,702,379,0,0,0
0,703,379,0,0,0
0,702,379,0,0,0
0,703,379,0,0,0
0,703,378,0,0,0
0,703,379,0,0,0
0,704,379,0,0,0
0,703,379,0,0,0
0,703,379,0,0,0
0,703,379,0,524,0
0,702,379,0,524,0
0,702,379,0,524,0
0,702,379,0,7401,0
0,702,379,0,7401,0
0,702,379,0,7401,0
0,700,379,0,7386,0
0,702,379,0,7386,0
0,702,379,0,7379,0
0,701,379,0,7377,0
0,700,378,0,7362,0
0,702,378,0,7362,0
0,702,379,0,7362,0
0,702,378,0,7366,0
0,701,379,0,7358,0
0,701,379,0,7350,0
0,701,379,0,7358,0
0,701,378,0,7357,0
0,700,379,0,7349,0
0,700,379,0,7345,0
0,699,379,0,7345,0
0,700,379,0,314,0
0,701,379,0,0,0
0,701,379,0,0,0
0,699,378,0,0,0
0,700,379,0,0,0
0,700,380,0,0,0
0,699,379,0,0,0
0,699,377,0,0,0
0,699,379,0,0,0
0,699,378,0,0,0
0,699,379,0,0,0
0,699,379,0,0,0
0,699,379,0,0,0
0,699,379,0,0,0
0,700,379,0,0,0
0,699,379,0,0,0
0,699,379,0,0,0
0,699,378,0,0,0
0,699,379,0,0,0
0,699,379,0,0,0
0,699,378,0,0,0
0,699,380,0,0,0
0,698,379,0,0,0
0,698,379,0,0,0
0,698,379,0,0,0
0,699,379,0,0,0
0,698,379,0,0,0
0,697,379,0,0,0
0,697,379,0,0,0
0,697,379,0,0,0
0,698,378,0,0,0
0,698,378,0,0,0
0,698,376,0,0,0
0,697,380,0,0,0
0,697,378,0,0,0
0,696,377,0,0,0
0,697,379,0,0,0
0,698,378,0,0,0
0,698,379,0,0,0
0,697,379,0,0,0
0,697,379,0,0,0
0,697,377,0,0,0
0,697,379,0,0,0
0,696,379,0,7267,0
0,697,377,0,7389,0
0,697,379,0,7415,0
0,697,377,0,7410,0
0,697,378,0,7397,0
0,698,380,0,7371,0
0,696,379,0,7377,0
0,697,378,0,7380,0
0,697,378,0,7369,0
0,697,379,0,7353,0
0,697,379,0,7340,0
0,697,378,0,7361,0
0,696,378,0,7357,0
0,696,378,0,7362,0
0,697,379,0,7363,0
0,696,378,0,7360,0
0,695,377,0,7355,0
0,696,379,0,7353,0
0,696,379,0,561,0
0,696,378,0,0,0
0,696,378,0,0,0
0,696,379,0,0,0
0,696,378,0,0,0
0,697,379,0,0,0
0,696,379,0,0,0
0,696,379,0,0,0
0,696,379,0,0,0
0,697,379,0,0,0
0,696,380,0,0,0
0,697,0,0,0,0
0,697,0,0,0,0
0,696,0,0,0,0
0,697,0,0,0,0
0,697,0,0,0,0
0,696,0,0,0,0
0,696,0,0,0,0
0,695,0,0,0,0
0,695,0,0,0,0
0,696,0,0,0,0
0,696,0,0,0,0
0,696,0,0,0,0
0,696,0,0,0,0
0,697,0,0,0,0
0,697,0,0,0,0
0,696,0,0,0,0
0,696,0,0,0,0
0,696,0,0,0,0
0,696,0,0,0,0
0,695,0,0,0,0
0,696,0,0,0,0
0,696,0,0,0,0
0,696,0,0,0,0
0,696,0,0,0,0
0,696,0,0,0,0
116,696,0,0,0,0
125,696,0,0,0,0
183,696,0,0,0,0
171,696,0,0,0,0
0,697,0,0,0,0
0,696,0,0,0,0
179,697,0,0,0,0
0,695,0,0,0,0
0,696,0,0,0,0
0,695,0,0,0,0
0,695,0,0,0,0
0,695,0,0,0,0
0,696,0,0,0,0
177,695,0,0,0,0
0,695,0,0,5709,0
0,695,0,0,7365,0
0,696,0,0,7434,0
0,695,0,0,7417,0
0,695,0,0,7406,0
0,695,0,0,7403,0
0,695,0,0,7387,0
0,696,0,0,7385,0
0,695,0,0,7384,0
0,695,0,0,7369,0
0,695,0,0,7370,0
0,695,0,0,7352,0
0,695,0,0,7362,0
0,693,0,0,7362,0
70,694,0,0,7359,0
0,696,0,0,7362,0
179,696,0,0,7359,0
179,696,0,0,7358,0
180,695,0,0,486,0
180,695,0,0,0,0
181,695,0,0,0,0
181,695,0,0,0,0
181,695,0,0,0,0
181,695,0,0,0,0
181,695,0,0,0,0
182,695,0,0,0,0
181,695,0,0,0,0
183,694,0,0,0,0
183,695,0,0,0,0
183,695,0,0,0,0
183,693,0,0,0,0
184,695,0,0,0,0
184,695,0,0,0,0
185,695,0,0,0,0
185,695,0,0,0,0
186,695,0,0,0,0
186,695,0,0,0,0
186,694,0,0,0,0
186,695,0,0,0,0
187,694,0,0,0,0
187,693,0,0,0,0
188,693,0,0,0,0
189,693,0,0,0,0
190,693,0,0,0,0
189,693,0,0,0,0
190,693,0,0,0,0
189,693,0,0,0,0
191,693,0,0,0,0
191,692,0,0,0,0
191,694,0,0,0,0
191,694,0,0,0,0
192,695,0,0,0,0
192,696,0,0,0,0
193,694,0,0,0,0
194,694,0,0,0,0
194,694,0,0,0,0
194,694,0,0,0,0
194,694,0,0,0,0
195,694,0,0,0,0
195,693,0,0,0,0
195,694,0,0,0,0
195,694,0,0,0,0
196,694,0,0,0,0
196,692,0,0,0,0
197,693,0,0,0,0
197,695,0,0,0,0
197,694,0,0,0,0
198,693,0,0,0,0
198,694,0,0,0,0
198,694,0,0,0,0
198,693,0,0,0,0
198,693,0,0,0,0
199,694,0,0,0,0
199,694,0,0,0,0
199,695,0,0,0,0
201,695,0,0,0,0
200,694,0,0,0,0
201,695,0,0,0,0
202,695,0,0,0,0
202,695,0,0,0,0
202,693,0,0,0,0
202,694,0,0,0,0
203,694,0,0,0,0
203,694,0,0,0,0
203,694,0,0,0,0
204,692,0,0,0,0
204,691,0,0,0,0
203,693,0,0,0,0
205,692,0,0,0,0
204,692,0,0,0,0
205,693,0,0,0,0
205,694,0,0,0,0
206,695,0,0,0,0
206,695,0,0,0,0
206,694,0,0,0,0
206,694,0,0,0,0
207,693,0,0,0,0
207,694,0,0,0,0
207,694,0,0,0,0
207,693,0,0,0,0
207,693,0,0,0,0
208,690,0,0,0,0
208,692,0,0,0,0
208,692,0,0,0,0
208,694,0,0,0,0
209,692,0,0,0,0
209,694,0,0,0,0
209,693,0,0,0,0
208,694,0,0,0,0
209,691,0,0,0,0
208,692,0,0,0,0
209,693,0,0,0,0
210,694,0,0,0,0
210,693,0,0,0,0
210,694,0,0,0,0
210,690,0,0,0,0
210,693,0,0,0,0
211,692,0,0,0,0
210,692,0,0,0,0
211,692,0,0,0,0
211,693,0,0,0,0
210,693,0,0,0,0
211,693,0,0,0,0
211,693,0,0,0,0
211,693,0,0,0,0
211,692,0,0,0,0
211,694,0,0,0,0
211,690,0,0,0,0
210,694,0,0,0,0
211,693,0,0,0,0
211,691,0,0,0,0
212,693,0,0,0,0
211,691,0,0,0,0
212,693,0,0,0,0
211,693,0,0,0,0
212,693,0,0,0,0
211,692,0,0,0,0
211,693,0,0,0,0
212,693,0,0,0,0
212,692,0,0,0,0
212,693,0,0,0,0
212,692,0,0,0,0
212,691,0,0,0,0
213,693,0,0,0,0
212,693,0,0,0,0
212,694,0,0,0,0
212,693,0,0,0,0
213,692,0,0,0,0
212,693,0,0,0,0
212,692,0,0,0,0
213,692,0,0,0,0
213,693,0,0,0,0
213,693,0,0,0,0
213,692,0,0,0,0
213,692,0,0,0,0
213,693,0,0,0,0
214,693,0,0,0,0
214,693,0,0,0,0
214,692,0,0,0,0
214,692,0,0,0,0
214,693,0,0,0,0
214,692,0,0,0,0
214,693,0,0,0,0
215,692,0,0,0,0
215,692,0,0,0,0
214,689,0,0,0,0
214,694,0,0,0,0
214,691,0,0,0,0
214,690,0,0,0,0
214,692,0,0,0,0
214,692,0,0,0,0
214,692,0,0,0,0
214,692,0,0,0,0
214,693,0,0,0,0
214,693,0,0,0,0
214,692,0,0,0,0
214,692,0,0,0,0
214,692,0,0,0,0
215,692,0,0,0,0
214,692,0,0,0,0
214,692,0,0,0,0
214,692,0,0,0,0
214,692,0,0,0,0
215,692,0,0,0,0
214,691,0,0,0,0
215,692,0,0,0,0
214,692,0,0,0,0
214,692,0,0,0,0
213,692,0,0,0,0
214,690,0,0,0,0
214,692,0,0,0,0
214,690,0,0,0,0
214,692,0,0,0,0
214,692,0,0,0,0
214,692,0,0,0,0
213,692,0,0,0,0
214,692,0,0,0,0
214,692,0,0,0,0
214,693,0,0,0,0
215,692,0,0,0,0
214,692,0,0,0,0
214,691,0,0,0,0
215,690,0,0,0,0
214,692,0,0,0,0
214,692,0,0,0,0
215,691,0,0,0,0
215,692,0,0,0,0
214,692,0,0,0,0
214,691,0,0,0,0
214,691,0,0,0,0
215,691,0,0,0,0
214,692,0,0,0,0
214,692,0,0,0,0
215,692,0,0,0,0
214,691,0,0,0,0
214,692,0,0,0,0
214,690,0,0,0,0
214,691,0,0,0,0
214,691,0,0,0,0
214,691,0,0,0,0
214,691,0,0,0,0
215,691,0,0,0,0
214,691,0,0,0,0
213,691,0,0,0,0
214,689,0,0,0,0
214,692,0,0,0,0
214,692,0,0,0,0
215,692,0,0,0,0
214,691,0,0,0,0
215,690,0,0,0,0
215,692,0,0,0,0
214,691,0,0,0,0
214,692,0,0,0,0
215,692,0,0,0,0
215,691,0,0,0,0
214,691,0,0,0,0
214,691,0,0,0,0
215,692,0,0,0,0
215,691,0,0,0,0
215,691,0,0,0,0
214,691,0,0,0,0
214,689,0,0,0,0
215,691,0,0,0,0
214,690,0,0,0,0
214,690,0,0,0,0
214,691,0,0,0,0
215,692,0,0,0,0
214,692,0,0,0,0
214,690,0,0,0,0
215,691,0,0,0,0
213,691,0,0,0,0
215,689,0,0,0,0
214,691,0,0,0,0
214,692,0,0,0,0
214,692,0,0,0,0
214,691,0,0,0,0
214,692,0,0,0,0
214,692,0,0,0,0
214,692,0,0,0,0
214,692,0,0,0,0
215,691,0,0,0,0
214,691,0,0,0,0
214,691,0,0,0,0
215,691,0,0,0,0
215,691,0,0,0,0
214,692,0,0,0,0
215,691,0,0,0,0
215,691,0,0,0,0
214,692,0,0,0,0
215,691,0,0,0,0
215,691,0,0,0,0
214,692,0,0,0,0
215,691,0,0,0,0
214,692,0,0,0,0
215,691,0,0,0,0
215,691,0,0,0,0
214,691,0,0,0,0
214,692,0,0,0,0
214,691,0,0,0,0
214,689,0,0,0,0
214,691,0,0,0,0
214,691,0,0,0,0
214,692,0,0,0,0
213,691,0,0,0,0
215,692,0,0,0,0
215,692,0,0,0,0
215,692,0,0,0,0
215,691,0,0,0,0
215,691,0,0,0,0
214,691,0,0,0,0
214,691,0,0,0,0
214,691,0,0,0,0
214,692,0,0,0,0
215,692,0,0,0,0
213,691,0,0,0,0
214,690,0,0,0,0
213,691,0,0,0,0
214,692,0,0,0,0
214,691,0,0,0,0
214,691,0,0,0,0
214,692,0,0,0,0
213,691,0,0,0,0
214,691,0,0,0,0
214,691,0,0,0,0
214,691,0,0,0,0
214,690,0,0,0,0
214,691,0,0,0,0
214,692,0,0,0,0
214,691,0,0,0,0
214,692,0,0,0,0
213,691,0,0,0,0
213,691,0,0,0,0
215,691,0,0,0,0
214,689,0,0,0,0
214,690,0,0,0,0
214,692,0,0,0,0
213,691,0,0,0,0
214,690,0,0,0,0
214,690,0,0,0,0
214,689,0,0,0,0
213,690,0,0,0,0
215,691,0,0,0,0
214,690,0,0,0,0
213,690,0,0,0,0
213,690,0,0,0,0
214,690,0,0,0,0
213,690,0,0,0,0
214,691,0,0,0,0
213,691,0,0,0,0
214,691,0,0,0,0
214,690,0,0,0,0
214,691,0,0,0,0
214,690,0,0,0,0
213,689,0,0,0,0
213,690,0,0,0,0
213,691,0,0,0,0
214,691,0,0,0,0
213,690,0,0,0,0
213,691,0,0,0,0
214,692,0,0,0,0
214,691,0,0,0,0
213,691,0,0,0,0
214,690,0,0,0,0
213,691,0,0,0,0
213,690,0,0,0,0
213,690,0,0,0,0
213,690,0,0,0,0
213,690,0,0,0,0
213,691,0,0,0,0
212,691,0,0,0,0
213,691,0,0,0,0
213,691,0,0,0,0
213,691,0,0,0,0
213,690,0,0,0,0
213,690,0,0,0,0
213,690,0,0,0,0
213,691,0,0,0,0
213,690,0,0,0,0
213,692,0,0,0,0
214,691,0,0,0,0
213,691,0,0,0,0
213,692,0,0,0,0
214,690,0,0,0,0
214,690,0,0,0,0
213,690,0,0,0,0
213,691,0,0,0,0
214,691,0,0,0,0
213,689,0,0,0,0
212,691,0,0,0,0
212,690,0,0,0,0
213,691,0,0,0,0
213,691,0,0,0,0
213,690,0,0,0,0
213,690,0,0,0,0
213,691,0,0,0,0
214,691,0,0,0,0
213,690,0,0,0,0
214,691,0,0,0,0
213,690,0,0,0,0
214,690,0,0,0,0
214,690,0,0,0,0
214,690,0,0,0,0
213,690,0,0,0,0
213,690,0,0,0,0
213,690,0,0,0,0
213,690,0,0,0,0
214,690,0,0,0,0
214,691,0,0,0,0
213,690,0,0,0,0
213,691,0,0,0,0
214,691,0,0,0,0
214,690,0,0,0,0
214,690,0,0,0,0
214,691,0,0,0,0
214,690,0,0,0,0
214,690,0,0,0,0
213,689,0,0,0,0
213,691,0,0,0,0
213,690,0,0,0,0
213,689,0,0,0,0
213,690,0,0,0,0
213,690,0,0,0,0
213,690,0,0,0,0
214,690,0,0,0,0
213,690,0,0,0,0
213,690,0,0,0,0
213,690,0,0,0,0
212,690,0,0,0,0
213,690,0,0,0,0
213,689,0,0,0,0
213,691,0,0,0,0
213,690,0,0,0,0
213,690,0,0,0,0
213,690,0,0,0,0
213,690,0,0,0,0
213,690,0,0,0,0
213,690,0,0,0,0
213,690,0,0,0,0
213,691,0,0,0,0
213,690,0,0,0,0
213,690,0,0,0,0
213,690,0,0,0,0
213,690,0,0,0,0
212,691,0,0,0,0
213,690,0,0,0,0
213,690,0,0,0,0
212,691,0,0,0,0
213,690,0,0,0,0
213,691,0,0,0,0
213,689,0,0,0,0
213,689,0,0,0,0
212,690,0,0,0,0
213,690,0,0,0,0
213,691,0,0,0,0
213,690,0,0,0,0
213,691,0,0,0,0
213,690,0,0,0,0
213,690,0,0,0,0
212,692,0,0,0,0
213,690,0,0,0,0
213,691,0,0,0,0
213,689,0,0,0,0
213,689,0,0,0,0
213,691,0,0,0,0
213,690,0,0,0,0
213,690,0,0,0,0
214,689,0,0,0,0
213,691,0,0,0,0
212,690,0,0,0,0
212,690,0,0,0,0
213,690,0,0,0,0
212,689,0,0,0,0
213,689,0,0,0,0
213,690,0,0,0,0
212,690,0,0,0,0
213,688,0,0,0,0
212,688,0,0,0,0
213,689,0,0,0,0
213,690,0,0,0,0
212,689,0,0,0,0
213,689,0,0,0,0
212,689,0,0,0,0
212,689,0,0,0,0
213,689,0,0,0,0
213,690,0,0,0,0
213,690,0,0,0,0
213,689,0,0,0,0
212,689,0,0,0,0
213,690,0,0,0,0
212,690,0,0,0,0
212,690,0,0,0,0
213,690,0,0,0,0
212,689,0,0,0,0
213,689,0,0,0,0
213,689,0,0,0,0
212,690,0,0,0,0
213,690,0,0,0,0
213,690,0,0,0,0
213,689,0,0,0,0
213,690,0,0,0,0
212,689,0,0,0,0
212,690,0,0,0,0
212,690,0,0,0,0
212,689,0,0,0,0
213,690,0,0,0,0
213,689,0,0,0,0
212,689,0,0,0,0
213,690,0,0,0,0
212,690,0,0,0,0
213,689,0,0,0,0
212,690,0,0,0,0
213,688,0,0,0,0
212,691,0,0,0,0
212,690,0,0,0,0
213,690,0,0,0,0
212,690,0,0,0,0
212,689,0,0,0,0
213,690,0,0,0,0
212,689,0,0,0,0
213,689,0,0,0,0
212,689,0,0,0,0
213,690,0,0,0,0
212,690,0,0,0,0
212,690,0,0,0,0
213,689,0,0,0,0
213,689,0,0,0,0
213,689,0,0,0,0
212,690,0,0,0,0
212,690,0,0,0,0
213,689,0,0,0,0
212,690,0,0,0,0
213,690,0,0,0,0
212,690,0,0,0,0
213,689,0,0,0,0
213,690,0,0,0,0
213,690,0,0,0,0
212,689,379,0,0,0
213,688,379,0,0,0
212,690,379,0,0,0
213,690,379,0,0,0
213,690,379,0,0,0
213,689,379,0,0,0
212,690,379,0,0,0
212,688,379,0,0,0
212,690,378,0,0,0
212,689,379,0,0,0
212,689,379,0,0,0
212,690,378,0,0,0
212,689,379,0,0,0
212,689,379,0,0,0
212,689,379,0,0,0
212,689,378,0,0,0
212,689,378,0,0,0
212,690,379,0,0,0
0,0,0,0,0,0
